<?xml version="1.0" encoding="UTF-8"?>
<svg width="78px" height="62px" viewBox="0 0 78 62" version="1.1" xmlns="http://www.w3.org/2000/svg" xmlns:xlink="http://www.w3.org/1999/xlink">
    <!-- Generator: Sketch 51.2 (57519) - http://www.bohemiancoding.com/sketch -->
    <title>laptop (1)</title>
    <desc>Created with Sketch.</desc>
    <defs></defs>
    <g id="Page-1" stroke="none" stroke-width="1" fill="none" fill-rule="evenodd">
        <g id="HOME" transform="translate(-832.000000, -1541.000000)" fill="#FFFFFF" fill-rule="nonzero">
            <g id="laptop-(1)" transform="translate(832.000000, 1541.000000)">
                <path d="M65.34027,47.1321774 L65.34027,36.7563353 L61.5843645,36.7563353 L61.5843645,45.0511952 C61.5843645,46.3481755 60.5365579,47.4074758 59.2592801,47.4074758 L12.7440945,47.4074758 C11.4668166,47.4074758 10.4190101,46.3490305 10.4190101,45.0511952 L10.4190101,16.7758285 C10.4190101,15.4754283 11.4668166,14.416983 12.7440945,14.416983 L39.356018,14.416983 L39.356018,12 L9.33577053,12 C7.86867267,12 6.66394826,13.2114839 6.66394826,14.701686 L6.66394826,30.9212065 L6.66394826,47.1321774 L6.66394826,49.8338634 L0,57.9423412 C0,60.1823467 1.79021372,62 3.99718785,62 L68.0028121,62 C70.2097863,62 72,60.1823467 72,57.9423412 L65.3360517,49.8338634 L65.3360517,47.1321774 L65.34027,47.1321774 Z M41.34027,60.6440272 L30.6698538,60.6440272 C30.2986502,60.6440272 30.0025309,60.3439349 30.0025309,59.9677508 C30.0025309,59.5915666 30.2986502,59.2914743 30.6698538,59.2914743 L41.3368954,59.2914743 C41.7021935,59.2914743 42.0042182,59.5915666 42.0042182,59.9677508 C41.9983127,60.3439349 41.7055681,60.6440272 41.34027,60.6440272 Z M25.0089989,57.9423412 L27.0438695,55.4672207 L44.9603487,55.4672207 L46.9952193,57.9423412 C46.9952193,57.9423412 25.0089989,57.9423412 25.0089989,57.9423412 Z" id="Shape"></path>
                <g id="Group" transform="translate(31.000000, 0.000000)">
                    <rect id="Rectangle-path" x="0" y="31" width="6" height="6"></rect>
                    <rect id="Rectangle-path" x="4" y="24" width="6" height="6"></rect>
                    <rect id="Rectangle-path" x="10" y="31" width="6" height="6"></rect>
                    <rect id="Rectangle-path" x="14" y="21" width="7" height="7"></rect>
                    <rect id="Rectangle-path" x="24" y="1" width="7" height="7"></rect>
                    <rect id="Rectangle-path" x="11" y="13" width="7" height="7"></rect>
                    <rect id="Rectangle-path" x="22" y="10" width="10" height="9"></rect>
                    <rect id="Rectangle-path" x="29" y="22" width="12" height="11"></rect>
                    <rect id="Rectangle-path" x="33" y="0" width="14" height="14"></rect>
                    <rect id="Rectangle-path" x="20" y="29" width="7" height="7"></rect>
                </g>
            </g>
        </g>
    </g>
</svg>